{
  "development": {
    "username": "root",
    "password": "password",
    "database": "test",
    "host": "127.0.0.1",
    "dialect": "mysql"
  },
  "test": {
    "username": "root",
    "password": null,
    "database": "database_test",
    "host": "127.0.0.1",
    "dialect": "mysql"
  },
  "production": {
    "username": "admin",
    "password": "12345678",
    "database": "test",
    "host": "database-1.cw3lklyzv2vk.ap-northeast-1.rds.amazonaws.com",
    "dialect": "mysql"
  }
}
